{
    "latex_symbol1": "\\tau",
    "latex_unit1": "",
    "range1": [
        0.1,
        0.3,
        0.5
    ],
    "latex_symbol2": "T",
    "latex_unit2": "K",
    "range2": [
        30.0,
        100.0,
        300.0,
        500.0
    ],
    "data": [
        [
            -4.879365927273318e-10,
            -4.867251418207687e-10,
            -4.859765433065531e-10,
            -4.840396135076007e-10
        ],
        [
            -4.738073284514526e-10,
            -4.748507777724935e-10,
            -4.73959843926401e-10,
            -4.72649931880087e-10
        ],
        [
            -4.6247451986819164e-10,
            -4.623104243509704e-10,
            -4.599637467796605e-10,
            -4.572522570278488e-10
        ]
    ],
    "err": [
        [
            1.6364870196929232e-12,
            1.1230539522510141e-12,
            6.858503309148352e-13,
            5.978707886709632e-13
        ],
        [
            8.21029238339849e-13,
            4.502728251833066e-13,
            3.9818595584846044e-13,
            4.0603955996127446e-13
        ],
        [
            4.648395799808628e-13,
            4.2828830285223135e-13,
            4.228897866799035e-13,
            4.4255065726214473e-13
        ]
    ],
    "help1": "'range1' gives timesteps, and 'range2' gives to temperatures / nuclear masses",
    "help2": "Columns of 'data'-matrix correspond to 'range1' and rows correspond to 'range2'.",
    "help3": "Errorsbars of 'err' are with 1-sigma.",
    "help4": "See '*_tables.txt' for better visualization of 'data' and 'err'.",
    "help5": "During runtime, extrapolation at tau=0 will be attached with 'data_tau0' and 'err_tau0'."
}