energy (Hartree)
    \tau m|m0.00108    |m0.00217    |
    ---------------------------------
    tau0.0|-0.69119(22)|-0.83983(21)|
    tau0.1|-0.69163(9) |-0.84107(10)|
    tau0.2|-0.69214(13)|-0.84205(12)|
    tau0.3|-0.69254(11)|-0.84341(11)|

