{
    "latex_symbol1": "\\tau",
    "latex_unit1": "",
    "range1": [
        0.01,
        0.03,
        0.05
    ],
    "latex_symbol2": "T",
    "latex_unit2": "K",
    "range2": [
        300.0,
        1000.0,
        3000.0
    ],
    "data": [
        [
            -2.903915740372184,
            -2.90493260334204,
            -2.9033804852853202
        ],
        [
            -2.9052020134652965,
            -2.904335550598938,
            -2.904630585867977
        ],
        [
            -2.90703874803181,
            -2.9066967283665144,
            -2.906992781683662
        ]
    ],
    "err": [
        [
            0.0003778501703997093,
            0.0006532413313963213,
            0.00036399070387966524
        ],
        [
            0.0003467394162640473,
            0.000356193340902262,
            0.0003671255000979651
        ],
        [
            0.00033353273263266275,
            0.0003330733724756318,
            0.0003624237824853405
        ]
    ],
    "help1": "'range1' gives timesteps, and 'range2' gives to temperatures / nuclear masses",
    "help2": "Columns of 'data'-matrix correspond to 'range1' and rows correspond to 'range2'.",
    "help3": "Errorsbars of 'err' are with 1-sigma.",
    "help4": "See '*_tables.txt' for better visualization of 'data' and 'err'.",
    "help5": "During runtime, extrapolation at tau=0 will be attached with 'data_tau0' and 'err_tau0'."
}