susceptibility (m^3/mol)
    \tau  m|m0.00163       |m0.00490       |m0.01470       |m0.04411       |m0.125         |m0.25          |m0.5           |m1.0           |m2.0           |m4.0           |m8.0           |
    ----------------------------------------------------------------------------------------------------------------------------------------------------------------------------------------
    tau0.0 |-1.434(4)e-10  |-8.147(26)e-11 |-6.283(19)e-11 |-5.604(18)e-11 |-5.315(11)e-11 |-5.216(12)e-11 |-5.157(12)e-11 |-5.108(11)e-11 |-5.082(15)e-11 |-5.072(16)e-11 |-5.054(17)e-11 |
    tau0.01|-1.4314(26)e-10|-8.094(18)e-11 |-6.261(11)e-11 |-5.568(12)e-11 |-5.292(7)e-11  |-5.185(9)e-11  |-5.121(7)e-11  |-5.077(9)e-11  |-5.055(12)e-11 |-5.040(14)e-11 |-5.023(13)e-11 |
    tau0.03|-1.4282(25)e-10|-8.022(15)e-11 |-6.170(11)e-11 |-5.530(9)e-11  |-5.225(8)e-11  |-5.134(7)e-11  |-5.062(8)e-11  |-5.019(7)e-11  |-4.988(8)e-11  |-4.976(8)e-11  |-4.958(9)e-11  |
    tau0.05|-1.4225(29)e-10|-7.909(17)e-11 |-6.136(14)e-11 |-5.452(13)e-11 |-5.184(7)e-11  |-5.069(7)e-11  |-4.989(7)e-11  |-4.955(4)e-11  |-4.937(8)e-11  |-4.913(7)e-11  |-4.898(9)e-11  |

