energy (Hartree)
    \tau  T|T0.0       |T300.0     |T1000.0    |T3000.0    |
    --------------------------------------------------------
    tau0.0 |-2.9028(15)|-2.9030(7) |-2.9020(16)|-2.9019(12)|
    tau0.01|           |-2.9037(5) |-2.9029(8) |-2.9027(9) |
    tau0.03|           |-2.9058(4) |-2.9049(12)|-2.9047(7) |
    tau0.05|           |-2.9069(4) |-2.9067(9) |-2.9063(7) |

